{
  "icon": "sym_o_accessibility_new",
  "main_title": null,
  "titles": {
  },
  "no_list": [
    "id"
  ],
  "no_edit": [
    "id"
  ],
  "required": [
    "id",
    "name"
  ],
  "currency_fields": [ ],
  "image_fields": [ ]}
